807458.8125 174596.7969 0.0000
807447.8125 174582.9063 0.0000
807454.0000 174568.7969 0.0000
807455.2972 174565.2476 0.0000
807455.6488 174564.2857 0.0000
807459.6250 174553.4063 0.0000
807461.8125 174532.2969 0.0000
807466.0000 174508.0000 0.0000
807477.8750 174492.0000 0.0000
807488.5000 174476.5000 0.0000
807494.4994 174466.6410 0.0000
807496.9419 174462.6271 0.0000
807497.8750 174461.0938 0.0000
807502.6875 174438.0938 0.0000
807506.3125 174421.5000 0.0000
807517.6250 174404.0938 0.0000
807530.6875 174384.2031 0.0000
807544.3750 174363.5938 0.0000
807560.0000 174336.5938 0.0000
807571.3125 174318.0000 0.0000
807580.0000 174302.5938 0.0000
807590.0000 174292.3223 0.0000
