806287.1250 174819.4062 0.0000
806301.6875 174821.1250 0.0000
806393.1876 174828.0625 0.0000
806423.0000 174839.7188 0.0000
806479.2500 174883.3750 0.0000
806503.4375 174886.7187 0.0000
806523.8124 174876.0156 0.0000
806545.5000 174864.6875 0.0000
806549.5000 174840.5000 0.0000
806536.9374 174811.7500 0.0000
806458.9374 174682.5938 0.0000
806382.3750 174620.9687 0.0000
806366.0000 174596.0156 0.0000
806382.1875 174555.3594 0.0000
806428.1250 174525.7032 0.0000
806508.4375 174492.4375 0.0000
806553.1250 174465.3281 0.0000
806605.8750 174465.0156 0.0000
806760.5001 174438.5782 0.0000
806822.8750 174425.5937 0.0000
806856.6875 174414.9687 0.0000
806895.4375 174412.0312 0.0000
806935.5625 174404.6407 0.0000
806954.7500 174380.5468 0.0000
806953.6875 174354.4219 0.0000
806976.9374 174297.2343 0.0000
807028.8750 174224.9375 0.0000
807067.8750 174182.5000 0.0000
807174.4375 174114.6563 0.0000
