815251.3748 176670.0000 0.0000
815248.0000 176887.2031 0.0000
815538.3125 176961.4063 0.0000
815905.8750 176768.0938 0.0000
816446.3750 176727.0938 0.0000
817014.8750 177329.0000 0.0000
818252.3125 178057.9063 0.0000
818890.8125 178894.9063 0.0000
819110.6875 179537.2031 0.0000
