803184.6250 173135.2031 0.0000
803155.8750 172874.0938 0.0000
803267.1250 172852.2969 0.0000
803106.1250 172481.2969 0.0000
802603.3750 172101.7969 0.0000
802659.6875 171917.4063 0.0000
803340.6875 171719.5000 0.0000
